<?xml version="1.0" encoding="UTF-8"?>
<svg width="30px" height="30px" viewBox="0 0 30 30" version="1.1" xmlns="http://www.w3.org/2000/svg" xmlns:xlink="http://www.w3.org/1999/xlink">
    <title>ant-design:ordered-list-outlined</title>
    <g id="Page-1" stroke="none" stroke-width="1" fill="none" fill-rule="evenodd">
        <g id="ant-design:ordered-list-outlined" fill-rule="nonzero">
            <g id="Icon" fill="#333333">
                <path d="M26.953125,22.265625 L9.84375,22.265625 C9.71484375,22.265625 9.609375,22.3710938 9.609375,22.5 L9.609375,24.140625 C9.609375,24.2695312 9.71484375,24.375 9.84375,24.375 L26.953125,24.375 C27.0820312,24.375 27.1875,24.2695312 27.1875,24.140625 L27.1875,22.5 C27.1875,22.3710938 27.0820312,22.265625 26.953125,22.265625 Z M26.953125,5.625 L9.84375,5.625 C9.71484375,5.625 9.609375,5.73046875 9.609375,5.859375 L9.609375,7.5 C9.609375,7.62890625 9.71484375,7.734375 9.84375,7.734375 L26.953125,7.734375 C27.0820312,7.734375 27.1875,7.62890625 27.1875,7.5 L27.1875,5.859375 C27.1875,5.73046875 27.0820312,5.625 26.953125,5.625 Z M26.953125,13.9453125 L9.84375,13.9453125 C9.71484375,13.9453125 9.609375,14.0507812 9.609375,14.1796875 L9.609375,15.8203125 C9.609375,15.9492188 9.71484375,16.0546875 9.84375,16.0546875 L26.953125,16.0546875 C27.0820312,16.0546875 27.1875,15.9492188 27.1875,15.8203125 L27.1875,14.1796875 C27.1875,14.0507812 27.0820312,13.9453125 26.953125,13.9453125 Z M6.328125,20.859375 L2.9296875,20.859375 C2.86523438,20.859375 2.8125,20.9121094 2.8125,20.9765625 L2.8125,21.9726562 C2.8125,22.0371094 2.86523438,22.0898438 2.9296875,22.0898438 L5.05078125,22.0898438 L5.05078125,22.6904297 L4.00488281,22.6904297 C3.94042969,22.6904297 3.88769531,22.7431641 3.88769531,22.8076172 L3.88769531,23.8037109 C3.88769531,23.8681641 3.94042969,23.9208984 4.00488281,23.9208984 L5.05078125,23.9208984 L5.05078125,24.5507812 L2.9296875,24.5507812 C2.86523438,24.5507812 2.8125,24.6035156 2.8125,24.6679688 L2.8125,25.6640625 C2.8125,25.7285156 2.86523438,25.78125 2.9296875,25.78125 L6.328125,25.78125 C6.39257812,25.78125 6.4453125,25.7285156 6.4453125,25.6640625 L6.4453125,20.9765625 C6.4453125,20.9121094 6.39257812,20.859375 6.328125,20.859375 Z M2.9296875,5.5078125 L4.04296875,5.5078125 L4.04296875,9.0234375 C4.04296875,9.08789062 4.09570312,9.140625 4.16015625,9.140625 L5.33203125,9.140625 C5.39648438,9.140625 5.44921875,9.08789062 5.44921875,9.0234375 L5.44921875,4.453125 C5.44921875,4.32421875 5.34375,4.21875 5.21484375,4.21875 L2.9296875,4.21875 C2.86523438,4.21875 2.8125,4.27148438 2.8125,4.3359375 L2.8125,5.390625 C2.8125,5.45507812 2.86523438,5.5078125 2.9296875,5.5078125 Z M6.328125,12.5390625 L2.9296875,12.5390625 C2.86523438,12.5390625 2.8125,12.5917969 2.8125,12.65625 L2.8125,13.7109375 C2.8125,13.7753906 2.86523438,13.828125 2.9296875,13.828125 L4.93359375,13.828125 L2.87402344,16.1044922 C2.83517778,16.1481242 2.81333836,16.2042827 2.8125,16.2626953 L2.8125,17.34375 C2.8125,17.4082031 2.86523438,17.4609375 2.9296875,17.4609375 L6.328125,17.4609375 C6.39257812,17.4609375 6.4453125,17.4082031 6.4453125,17.34375 L6.4453125,16.2890625 C6.4453125,16.2246094 6.39257812,16.171875 6.328125,16.171875 L4.32421875,16.171875 L6.38378906,13.8955078 C6.42263472,13.8518758 6.44447414,13.7957173 6.4453125,13.7373047 L6.4453125,12.65625 C6.4453125,12.5917969 6.39257812,12.5390625 6.328125,12.5390625 L6.328125,12.5390625 Z" id="Icon-Shape"></path>
            </g>
            <rect id="ViewBox" x="0" y="0" width="30" height="30"></rect>
        </g>
    </g>
</svg>