<?xml version="1.0" encoding="UTF-8"?>
<svg width="30px" height="30px" viewBox="0 0 30 30" version="1.1" xmlns="http://www.w3.org/2000/svg" xmlns:xlink="http://www.w3.org/1999/xlink">
    <title>bx-bxs-copyright</title>
    <g id="Page-1" stroke="none" stroke-width="1" fill="none" fill-rule="evenodd">
        <g id="bx-bxs-copyright" fill-rule="nonzero">
            <g id="Icon" fill="#333333">
                <path d="M15,2.5 C8.22375,2.5 2.5,8.225 2.5,15 C2.5,21.775 8.22375,27.5 15,27.5 C21.77625,27.5 27.5,21.775 27.5,15 C27.5,8.225 21.77625,2.5 15,2.5 Z M15,18.75 C16.24,18.75 17.3125,18.41875 17.86625,17.865 L19.63375,19.63375 C18.22625,21.04 16.12625,21.25 15,21.25 C11.55375,21.25 8.75,18.44625 8.75,15 C8.75,11.55375 11.55375,8.75 15,8.75 C16.12625,8.75 18.2275,8.96 19.63375,10.36625 L17.86625,12.13375 C17.31375,11.58 16.24125,11.25 15,11.25 C12.9675,11.25 11.25,12.9675 11.25,15 C11.25,17.0325 12.9675,18.75 15,18.75 Z" id="Icon-Shape"></path>
            </g>
            <rect id="ViewBox" x="0" y="0" width="30" height="30"></rect>
        </g>
    </g>
</svg>