<?xml version="1.0" encoding="UTF-8"?>
<svg width="30px" height="30px" viewBox="0 0 30 30" version="1.1" xmlns="http://www.w3.org/2000/svg" xmlns:xlink="http://www.w3.org/1999/xlink">
    <title>bi-arrow-left-square-fill</title>
    <g id="Page-1" stroke="none" stroke-width="1" fill="none" fill-rule="evenodd">
        <g id="bi-arrow-left-square-fill" fill-rule="nonzero">
            <g id="Icon-Group" fill="#333333">
                <path d="M3.75,0 C1.67893219,0 0,1.67893219 0,3.75 L0,26.25 C0,28.3210678 1.67893219,30 3.75,30 L26.25,30 C28.3210678,30 30,28.3210678 30,26.25 L30,3.75 C30,1.67893219 28.3210678,0 26.25,0 L3.75,0 Z M15.66375,19.96125 C16.030329,20.327829 16.030329,20.922171 15.66375,21.28875 C15.297171,21.655329 14.702829,21.655329 14.33625,21.28875 L8.71125,15.66375 C8.53492181,15.487867 8.43582416,15.2490511 8.43582416,15 C8.43582416,14.7509489 8.53492181,14.512133 8.71125,14.33625 L14.33625,8.71125 C14.573385,8.47411496 14.9190169,8.38150318 15.2429494,8.46830063 C15.5668819,8.55509807 15.8199019,8.80811815 15.9066994,9.13205063 C15.9934968,9.45598312 15.900885,9.80161497 15.66375,10.03875 L11.638125,14.0625 L20.625,14.0625 C21.142767,14.0625 21.5625,14.482233 21.5625,15 C21.5625,15.517767 21.142767,15.9375 20.625,15.9375 L11.638125,15.9375 L15.66375,19.96125 Z" id="Icon-Shape"></path>
            </g>
            <rect id="ViewBox" x="0" y="0" width="30" height="30"></rect>
        </g>
    </g>
</svg>